…
### 단어 빈도수 시각화하기

``` r
t(word_dtm) %>% tidy() %>% group_by(term) %>% summarise(Freq=sum(count)) %>% 
    #filter(term!="관하", term!="대하") %>%        
    arrange(desc(Freq)) %>% head(200) %T>% print() %>% # write.csv("단어 빈도수.csv", row.names=F)
    wordcloud2(size=0.4, color="random-dark") 
```

    ## # A tibble: 200 x 2
    ##    term    Freq
    ##    <chr>  <dbl>
    ##  1 ai      2467
    ##  2 사진    1913
    ##  3 데이터  1733
    ##  4 감사    1723
    ##  5 드리    1249
    ##  6 만들    1024
    ##  7 생각     831
    ##  8 사람     774
    ##  9 발표     765
    ## 10 프렌즈   755
    ## # ... with 190 more rows
…
