…
train_meta_fill <- train_meta %>% 
  mutate(청색광추정광량=1.5666*blueLED, 
                적색광추정광량=1.6548*redLED, 
                백색광추정광량=3.0939*whiteLED) %>% 
  mutate(총추정광량=백색광추정광량+적색광추정광량+청색광추정광량) %>% 
  select(img_name, 내부온도관측치, 내부습도관측치, CO2관측치, EC관측치, 
         최근분무량, 총추정광량, 백색광추정광량, 적색광추정광량, 청색광추정광량) %>% 
  rename(temp=2, humi=3, CO2=4, EC=5, water=6, light=7, light_w=8, light_r=9, light_b=10) %>% 
  mutate(light_b=ifelse(is.na(light_b) & !is.na(light) & !is.na(light_w) & !is.na(light_r), 
                        light-light_w-light_r, light_b)) %>% 
  group_by(img_name) %>% summarise_all(list(mean), na.rm=T)
train_meta_fill
```

    ## # A tibble: 1,592 x 10
    ##    img_name   temp  humi   CO2    EC water light light_w light_r light_b
    ##    <chr>     <dbl> <dbl> <dbl> <dbl> <dbl> <dbl>   <dbl>   <dbl>   <dbl>
    ##  1 CASE01_01  22.2  77.7  487.  19.6     0  955.    621.    333.   0.366
    ##  2 CASE01_02  23.0  77.6  480.  20.9     0  954.    621.    332.   0.367
    ##  3 CASE01_03  22.9  77.5  489.  20.7     0  953.    621.    332.   0.367
    ##  4 CASE01_04  21.0  80.1  481.  18.2     0  949.    619.    331.   0.366
    ##  5 CASE01_05  21.9  81.3  491.  19.4     0  954.    621.    333.   0.366
    ##  6 CASE01_06  24.3  80.2  496.  23.1     0  954.    622.    332.   0.365
    ##  7 CASE01_07  24.5  81.5  513.  23.4     0  954.    621.    333.   0.366
    ##  8 CASE01_08  24.6  82.4  514.  23.6     0  950.    620.    332.   0.367
    ##  9 CASE01_09  25.4  83.5  493.  23.9     0  952.    621.    332.   0.365
    ## 10 CASE02_01  21.9  82.9  522.  19.9     0  953.    620.    332.   0.359
    ## # ... with 1,582 more rows
…
